C:\Users\GP\Documents\proyectodesarrolloweb\src\main\java\com\cotizadoramazon\spring\app\servicies\CostoEnvioInternacionalServiceImpl.java
C:\Users\GP\Documents\proyectodesarrolloweb\src\main\java\com\cotizadoramazon\spring\app\dto\IntercambioRequestDTO.java
C:\Users\GP\Documents\proyectodesarrolloweb\src\main\java\com\cotizadoramazon\spring\app\controllers\IndexController.java
C:\Users\GP\Documents\proyectodesarrolloweb\src\main\java\com\cotizadoramazon\spring\app\controllers\PorcentajeGananciaController.java
C:\Users\GP\Documents\proyectodesarrolloweb\src\main\java\com\cotizadoramazon\spring\app\controllers\sobreNosotrosController.java
C:\Users\GP\Documents\proyectodesarrolloweb\src\main\java\com\cotizadoramazon\spring\app\servicies\ImpuestoAduanaService.java
C:\Users\GP\Documents\proyectodesarrolloweb\src\main\java\com\cotizadoramazon\spring\app\entities\EnvioNacional.java
C:\Users\GP\Documents\proyectodesarrolloweb\src\main\java\com\cotizadoramazon\spring\app\servicies\ImpuestoAduanaServiceImpl.java
C:\Users\GP\Documents\proyectodesarrolloweb\src\main\java\com\cotizadoramazon\spring\app\entities\CostoEnvioInternacional.java
C:\Users\GP\Documents\proyectodesarrolloweb\src\main\java\com\cotizadoramazon\spring\app\repositories\CostoEnvioInternacionalRepository.java
C:\Users\GP\Documents\proyectodesarrolloweb\src\main\java\com\cotizadoramazon\spring\app\entities\PorcentajeGanancia.java
C:\Users\GP\Documents\proyectodesarrolloweb\src\main\java\com\cotizadoramazon\spring\app\dto\BuscarProductoResponseDTO.java
C:\Users\GP\Documents\proyectodesarrolloweb\src\main\java\com\cotizadoramazon\spring\app\controllers\EnvioNacionalController.java
C:\Users\GP\Documents\proyectodesarrolloweb\src\main\java\com\cotizadoramazon\spring\app\repositories\PorcentajeGananciaRepository.java
C:\Users\GP\Documents\proyectodesarrolloweb\src\main\java\com\cotizadoramazon\spring\app\controllers\AdministracionController.java
C:\Users\GP\Documents\proyectodesarrolloweb\src\main\java\com\cotizadoramazon\spring\app\controllers\ImpuestoAduanaController.java
C:\Users\GP\Documents\proyectodesarrolloweb\src\main\java\com\cotizadoramazon\spring\app\servicies\PorcentajeGananciaServiceImpl.java
C:\Users\GP\Documents\proyectodesarrolloweb\src\main\java\com\cotizadoramazon\spring\app\dto\BuscarProductoRequestDTO.java
C:\Users\GP\Documents\proyectodesarrolloweb\src\main\java\com\cotizadoramazon\spring\app\controllers\CostoEnvioIntenacionalController.java
C:\Users\GP\Documents\proyectodesarrolloweb\src\main\java\com\cotizadoramazon\spring\app\dto\ProductoAmazon.java
C:\Users\GP\Documents\proyectodesarrolloweb\src\main\java\com\cotizadoramazon\spring\app\servicies\PorcentajeGananciaService.java
C:\Users\GP\Documents\proyectodesarrolloweb\src\main\java\com\cotizadoramazon\spring\app\controllers\ProductoAmazonController.java
C:\Users\GP\Documents\proyectodesarrolloweb\src\main\java\com\cotizadoramazon\spring\app\CotizadorAmazon.java
C:\Users\GP\Documents\proyectodesarrolloweb\src\main\java\com\cotizadoramazon\spring\app\servicies\CostoEnvioInternacionalService.java
C:\Users\GP\Documents\proyectodesarrolloweb\src\main\java\com\cotizadoramazon\spring\app\dto\IntercambioResponseDTO.java
C:\Users\GP\Documents\proyectodesarrolloweb\src\main\java\com\cotizadoramazon\spring\app\servicies\EnvioNacionalServiceImpl.java
C:\Users\GP\Documents\proyectodesarrolloweb\src\main\java\com\cotizadoramazon\spring\app\repositories\ImpuestoAduanaRepository.java
C:\Users\GP\Documents\proyectodesarrolloweb\src\main\java\com\cotizadoramazon\spring\app\servicies\EnvioNacionalService.java
C:\Users\GP\Documents\proyectodesarrolloweb\src\main\java\com\cotizadoramazon\spring\app\entities\ImpuestoAduana.java
C:\Users\GP\Documents\proyectodesarrolloweb\src\main\java\com\cotizadoramazon\spring\app\repositories\EnvioNacionalRepository.java
